{
  "project_info": {
    "project_number": "905920295531",
    "firebase_url": "https://justchat-64e8b.firebaseio.com",
    "project_id": "justchat-64e8b",
    "storage_bucket": "justchat-64e8b.appspot.com"
  },
  "client": [
    {
      "client_info": {
        "mobilesdk_app_id": "1:905920295531:android:a7f059927ba67109",
        "android_client_info": {
          "package_name": "conecttechno.justchat"
        }
      },
      "oauth_client": [
        {
          "client_id": "905920295531-l88ho68semc7blm546d854u0mbtiut3k.apps.googleusercontent.com",
          "client_type": 1,
          "android_info": {
            "package_name": "conecttechno.justchat",
            "certificate_hash": "fe0fd215cc53f48ab4a50134872f9333966f9ca1"
          }
        },
        {
          "client_id": "905920295531-bpdvaokakh4iubsd2pogvolgb3fba8gr.apps.googleusercontent.com",
          "client_type": 3
        }
      ],
      "api_key": [
        {
          "current_key": "AIzaSyCWj4HLfCUuHaNiS1zCFL90dsDod-o1H-U"
        }
      ],
      "services": {
        "analytics_service": {
          "status": 1
        },
        "appinvite_service": {
          "status": 2,
          "other_platform_oauth_client": [
            {
              "client_id": "905920295531-bpdvaokakh4iubsd2pogvolgb3fba8gr.apps.googleusercontent.com",
              "client_type": 3
            }
          ]
        },
        "ads_service": {
          "status": 2
        }
      }
    }
  ],
  "configuration_version": "1"
}